ST558 Homework 4
…
alphafold_info <- as_tibble(parsed$articles) 
alphafold_info

# A tibble: 77 × 8
   source$id $name author title description url   urlToImage publishedAt content
   <chr>     <chr> <chr>  <chr> <chr>       <chr> <chr>      <chr>       <chr>  
 1 <NA>      Subs… Oleg … "Are… "So this h… http… https://s… 2024-06-24… "So th…
 2 <NA>      Jour… Antoi… "La … "L'IA géné… http… https://w… 2024-05-30… "Aujou…
 3 <NA>      Phys… Scien… "Rei… "HHMI's Sc… http… https://s… 2024-06-07… "This …
 4 <NA>      Phys… Marc … "AI … "During he… http… https://s… 2024-06-06… "This …
 5 <NA>      Phys… Kathe… "Key… "The lengt… http… https://s… 2024-06-05… "This …
 6 <NA>      Nati… Danie… "Alp… "Vivimos e… http… https://c… 2024-06-12… "Vivim…
 7 <NA>      Tinh… no-re… "Bên… "Phòng lab… http… https://s… 2024-06-21… "iu qu…
 8 <NA>      Inte… Inter…  <NA> "Biologia … http… https://m… 2024-06-20… "Biolo…
 9 <NA>      Cour… <NA>   "L’I… "Après avo… http… https://f… 2024-06-14… "Avec …
10 <NA>      Tech… Alain… " Ce… "DeepMind … http… https://s… 2024-05-29… "DeepM…
# ℹ 67 more rows

alphafold_info |>
  mutate(source = apply(source, MARGIN = 1, as.list))

# A tibble: 77 × 8
   source       author    title description url   urlToImage publishedAt content
   <named list> <chr>     <chr> <chr>       <chr> <chr>      <chr>       <chr>  
 1 <named list> Oleg Tro… "Are… "So this h… http… https://s… 2024-06-24… "So th…
 2 <named list> Antoine … "La … "L'IA géné… http… https://w… 2024-05-30… "Aujou…
 3 <named list> Science X "Rei… "HHMI's Sc… http… https://s… 2024-06-07… "This …
 4 <named list> Marc Zim… "AI … "During he… http… https://s… 2024-06-06… "This …
 5 <named list> Katherin… "Key… "The lengt… http… https://s… 2024-06-05… "This …
 6 <named list> Daniel P… "Alp… "Vivimos e… http… https://c… 2024-06-12… "Vivim…
 7 <named list> no-reply… "Bên… "Phòng lab… http… https://s… 2024-06-21… "iu qu…
 8 <named list> Internaz…  <NA> "Biologia … http… https://m… 2024-06-20… "Biolo…
 9 <named list> <NA>      "L’I… "Après avo… http… https://f… 2024-06-14… "Avec …
10 <named list> Alain RE… " Ce… "DeepMind … http… https://s… 2024-05-29… "DeepM…
# ℹ 67 more rows
…
Run API function two times

The API function will first be tested by searching for Altera, which is start-up company working on AI that can play video games with real players.

api_query("Altera", "2024-05-26", api_key)

# A tibble: 100 × 8
   source       author    title description url   urlToImage publishedAt content
   <named list> <chr>     <chr> <chr>       <chr> <chr>      <chr>       <chr>  
 1 <named list> Maya Pos… "Fix… "One excit… http… https://h… 2024-06-10… "Using…
 2 <named list> Azucena … "Est… "El enjuag… http… https://i… 2024-06-05… "El en…
 3 <named list> Pablo Ma… "En … "La tecnol… http… https://i… 2024-06-05… "La te…
 4 <named list> Matías S… "El … "Desde que… http… https://i… 2024-06-17… "Desde…
 5 <named list> Javier M… "Rus… "En febrer… http… https://i… 2024-06-05… "En fe…
 6 <named list> Carlos P… "He … "— ¿Qué ho… http… https://i… 2024-06-16… "¿Qué …
 7 <named list> <NA>      "Fix… "Comments"  http… <NA>       2024-06-09… "What …
 8 <named list> Pablo Mo… "¿Ti… "La socied… http… https://i… 2024-05-28… "Estás…
 9 <named list> Sarah Ro… "¿Cu… "La Tierra… http… https://i… 2024-06-05… "Un eq…
10 <named list> Iván Gon… "\"S… "Aunque la… http… https://i… 2024-06-12… "Aunqu…
# ℹ 90 more rows
…
